{
  "action": "create:batch",
  "batch": {
    "Tasks": [
      {
        "initialvalue": "OIE 123"
      },
      {
        "initialvalue": "BIRL"
      },
      {
        "initialvalue": "Teste!"
      },
      {
        "initialvalue": "GO!!"
      },
      {
        "initialvalue": "OIE 123"
      },
      {
        "initialvalue": "BIRL"
      },
      {
        "initialvalue": "Teste!"
      },
      {
        "initialvalue": "GO!!"
      },
      {
        "initialvalue": "OIE 123"
      },
      {
        "initialvalue": "BIRL"
      },
      {
        "initialvalue": "Teste!"
      },
      {
        "initialvalue": "GO!!"
      },
      {
        "initialvalue": "OIE 123"
      },
      {
        "initialvalue": "BIRL"
      },
      {
        "initialvalue": "Teste!"
      },
      {
        "initialvalue": "GO!!"
      },
      {
        "initialvalue": "OIE 123"
      },
      {
        "initialvalue": "BIRL"
      },
      {
        "initialvalue": "Teste!"
      }
    ]
  }
}